{
    "KPlugin": {
        "Authors": [
            {
                "Email": "plasma-devel@kde.org  ",
                "Name": "KDE plasma",
                "Name[az]": "KDE plasma",
                "Name[bg]": "KDE plasma",
                "Name[ca@valencia]": "Plasma de KDE",
                "Name[ca]": "Plasma del KDE",
                "Name[cs]": "KDE plasma",
                "Name[de]": "KDE Plasma",
                "Name[en_GB]": "KDE Plasma",
                "Name[es]": "KDE Plasma",
                "Name[eu]": "KDE plasma",
                "Name[fi]": "KDE Plasma",
                "Name[fr]": "KDE Plasma",
                "Name[gl]": "KDE Plasma",
                "Name[ia]": "KDE Plasma",
                "Name[is]": "KDE-plasma",
                "Name[it]": "KDE Plasma",
                "Name[ka]": "KDE plasma",
                "Name[ko]": "KDE Plasma",
                "Name[lt]": "KDE Plasma",
                "Name[nl]": "KDE plasma",
                "Name[nn]": "KDE Plasma",
                "Name[pl]": "Plazma KDE",
                "Name[pt]": "Plasma do KDE",
                "Name[pt_BR]": "KDE Plasma",
                "Name[ru]": "KDE plasma",
                "Name[sk]": "KDE plasma",
                "Name[sl]": "KDE plasma",
                "Name[sv]": "KDE Plasma",
                "Name[ta]": "கே.டீ.யீ. பிளாஸ்மா",
                "Name[tr]": "KDE Plasma",
                "Name[uk]": "Плазма KDE",
                "Name[x-test]": "xxKDE plasmaxx",
                "Name[zh_CN]": "KDE plasma",
                "Name[zh_TW]": "KDE plasma"
            }
        ],
        "Category": "VPNService",
        "Description": "Compatible with F5 BIG-IP SSL VPN",
        "Description[az]": "F5 BIG-IP SSL VPN ilə uyğun SSL VPN",
        "Description[bg]": "Съвместим с F5 BIG-IP SSL VPN",
        "Description[ca@valencia]": "VPN sobre SSL compatible amb F5 en BIG-IP",
        "Description[ca]": "VPN sobre SSL compatible amb F5 BIG-IP",
        "Description[cs]": "Kompatibilní s F5 BIG-IP SSL VPN",
        "Description[de]": "Mit F5-BIG-IP-SSL-VPN kompatibel",
        "Description[en_GB]": "Compatible with F5 BIG-IP SSL VPN",
        "Description[es]": "Compatible con VPN SSL de F5 BIG-IP",
        "Description[eu]": "F5 BIG-IP SSL VPN-rekin bateragarria",
        "Description[fi]": "Yhteensopiva F5 BIG-IP:n SSL-VPN:n kanssa",
        "Description[fr]": "Compatible avec les VPN « F5 BIG-IP SSL »",
        "Description[gl]": "Compatíbel con servidores VPN por SSL de F5 BIG-IP.",
        "Description[ia]": "Compatibile con FS BIG-IP SSL VPN",
        "Description[is]": "Samhæft við F5 BIG-IP SSL VPN",
        "Description[it]": "Compatibile con F5 BIG-IP SSL VPN",
        "Description[ka]": "F5 BIG-IP SSL VPN-თან თავსებადი",
        "Description[ko]": "F5 BIG-IP SSL VPN과 호환됨",
        "Description[lt]": "Suderinamas su F5 BIG-IP SSL VPN",
        "Description[nl]": "Compatibel met F5 BIG-IP SSL VPN",
        "Description[nn]": "Kompatibel med F5 BIG-IP SSL VPN",
        "Description[pl]": "VPN SSL zgodny z F5 BIG-IP",
        "Description[pt]": "Compatível com a VPN por SSL da F5 BIG-IP",
        "Description[pt_BR]": "Compatível com a VPN F5 BIG-IP por SSL",
        "Description[ru]": "Совместимая с F5 BIG-IP VPN с SSL",
        "Description[sk]": "Kompatibilné s CPAN GlobalProtect SSL VPN",
        "Description[sl]": "Združljiv s F5 BIG-IP SSL VPN",
        "Description[sv]": "Kompatibel med F5 BIG-IP SSL VPN",
        "Description[tr]": "F5 BIG-IP SSL VPN ile uyumlu",
        "Description[uk]": "Сумісний із F5 BIG-IP SSL VPN",
        "Description[x-test]": "xxCompatible with F5 BIG-IP SSL VPNxx",
        "Description[zh_CN]": "兼容 F5 BIG-IP SSL VPN ",
        "Description[zh_TW]": "與 F5 BIG-IP SSL VPN 相容",
        "EnabledByDefault": false,
        "Icon": "",
        "Id": "plasmanetworkmanagement_openconnect_f5ui",
        "License": "GPL",
        "Name": "F5 BIG-IP Compatible VPN (openconnect)",
        "Name[az]": "F5 BIG-IP ilə uyğun VPN (openconnect)",
        "Name[bg]": "F5 BIG-IP съвместим VPN (openconnect)",
        "Name[ca@valencia]": "VPN compatible amb F5 en BIG-IP (openconnect)",
        "Name[ca]": "VPN compatible amb F5 BIG-IP (openconnect)",
        "Name[cs]": "VPN kompatibilní s F5 BIG-IP (openconnect)",
        "Name[de]": "VPN kompatibel mit F5 BIG-IP (openconnect)",
        "Name[en_GB]": "F5 BIG-IP Compatible VPN (openconnect)",
        "Name[es]": "VPN compatible con F5 BIG-IP (openconnect)",
        "Name[eu]": "F5 BIG-IP-rekin bateragarria den VPN (openconnect)",
        "Name[fi]": "F5 BIG-IP -yhteensopiva VPN (openconnect)",
        "Name[fr]": "VPN compatible « F5 BIG-IP » (openconnect)",
        "Name[gl]": "VPN compatíbel con F5 BIG-IP (openconnect)",
        "Name[ia]": "FS BIG-IP Compatible VPN (openconnect)",
        "Name[is]": "F5 BIG-IP samhæft VPN (openconnect)",
        "Name[it]": "VPN compatibile F5 BIG-IP (openconnect)",
        "Name[ka]": "F5 BIG-IP -თან თავსებადი VPN (openconnect)",
        "Name[ko]": "F5 BIG-IP 호환 VPN(openconnect)",
        "Name[lt]": "F5 BIG-IP suderinamas VPN (openconnect)",
        "Name[nl]": "F5 BIG-IP compatibele VPN (openconnect)",
        "Name[nn]": "F5 BIG-IP-kompatibel VPN (openconnect)",
        "Name[pl]": "VPN zgodny z F5 BIG-IP (openconnect)",
        "Name[pt]": "VPN Compatível com a F5 BIG-IP (openconnect)",
        "Name[pt_BR]": "VPN compatível com F5 BIG-IP (openconnect)",
        "Name[ru]": "Совместимая с F5 BIG-IP VPN (openconnect)",
        "Name[sk]": "VPN kompatibilná s Cisco AnyConnect (openconnect)",
        "Name[sl]": "F5 BIG-IP združljiv VPN (openconnect)",
        "Name[sv]": "F5 BIG-IP-kompatibel VPN (openconnect)",
        "Name[tr]": "F5 BIG-IP Uyumlu VPN (openconnect)",
        "Name[uk]": "VPN, сумісний з F5 BIG-IP (openconnect)",
        "Name[x-test]": "xxF5 BIG-IP Compatible VPN (openconnect)xx",
        "Name[zh_CN]": "F5 BIG-IP 兼容 VPN (openconnect)",
        "Name[zh_TW]": "與 F5 BIG-IP 相容的 VPN (openconnect)",
        "Version": "0.1",
        "Website": ""
    },
    "X-NetworkManager-Services": "org.freedesktop.NetworkManager.openconnect",
    "X-NetworkManager-Services-Subtype": "anyconnect"
}
