{
    "KPlugin": {
        "Authors": [
            {
                "Email": "jgrulich@redhat.com",
                "Name": "Jan Grulich",
                "Name[ar]": "Jan Grulich",
                "Name[az]": "Jan Grulich",
                "Name[bg]": "Jan Grulich",
                "Name[ca@valencia]": "Jan Grulich",
                "Name[ca]": "Jan Grulich",
                "Name[cs]": "Jan Grulich",
                "Name[de]": "Jan Grulich",
                "Name[en_GB]": "Jan Grulich",
                "Name[es]": "Jan Grulich",
                "Name[eu]": "Jan Grulich",
                "Name[fi]": "Jan Grulich",
                "Name[fr]": "Jan Grulich",
                "Name[gl]": "Jan Grulich",
                "Name[hu]": "Jan Grulich",
                "Name[ia]": "Jan Grulich",
                "Name[is]": "Jan Grulich",
                "Name[it]": "Jan Grulich",
                "Name[ka]": "Jan Grulich",
                "Name[ko]": "Jan Grulich",
                "Name[lt]": "Jan Grulich",
                "Name[nl]": "Jan Grulich",
                "Name[nn]": "Jan Gruhlich",
                "Name[pl]": "Jan Grulich",
                "Name[pt]": "Jan Grulich",
                "Name[pt_BR]": "Jan Grulich",
                "Name[ro]": "Jan Grulich",
                "Name[ru]": "Jan Grulich",
                "Name[sk]": "Jan Grulich",
                "Name[sl]": "Jan Grulich",
                "Name[sv]": "Jan Grulich",
                "Name[ta]": "ஜான் குரூலிச்",
                "Name[tr]": "Jan Grulich",
                "Name[uk]": "Jan Grulich",
                "Name[x-test]": "xxJan Grulichxx",
                "Name[zh_CN]": "Jan Grulich",
                "Name[zh_TW]": "Jan Grulich"
            }
        ],
        "Category": "VPNService",
        "Description": "Compatible with Pulse Connect Secure SSL VPN",
        "Description[ar]": "متوافق مع خادوم Pulse Connect Secure SSL VPN",
        "Description[az]": "Pulse Connect Secure SSL VPN ilə uyğun",
        "Description[bg]": "Съвместим с Pulse Connect Secure SSL VPN",
        "Description[ca@valencia]": "Compatible amb la VPN SSL de Pulse Connect Secure",
        "Description[ca]": "Compatible amb la VPN SSL de Pulse Connect Secure",
        "Description[cs]": "Kompatibilní s Pulse Connect Secure SSL VPN",
        "Description[de]": "Kompatibel mit Pulse Connect Secure SSL VPN",
        "Description[en_GB]": "Compatible with Pulse Connect Secure SSL VPN",
        "Description[es]": "Compatible con VPN Pulse Connect Secure SSL",
        "Description[eu]": "Pulse Connect Secure SSL VPN-rekin bateragarria",
        "Description[fi]": "Yhteensopiva Pulse Connect Securen SSL-VPN:n kanssa",
        "Description[fr]": "Compatible avec les VPN « Pulse Connect Secure SSL »",
        "Description[gl]": "Compatíbel con servidores VPN por SSL de Pulse Connect Secure.",
        "Description[hu]": "Kompatibilis a Pulse Connect Sevure SSL VPN-nel",
        "Description[ia]": "Compatibile con Pulse Connect Secure SSL VPN",
        "Description[is]": "Samhæft við Pulse Connect Secure SSL VPN",
        "Description[it]": "Compatibile con Pulse Connect Secure SSL VPN",
        "Description[ka]": "Pulse Connect Secure SSL VPN-თან თავსებადი",
        "Description[ko]": "Pulse Connect Secure SSL VPN과 호환됨",
        "Description[lt]": "Suderinamas su Pulse Connect Secure SSL VPN",
        "Description[nl]": "Compatibel met Pulse Connect Secure SSL VPN",
        "Description[nn]": "Kompatibel med Pulse Connect Secure SSL VPN",
        "Description[pl]": "VPN SSL zgodny z Pulse Connect Secure",
        "Description[pt]": "Compatível com a VPN por SSL Pulse Connect Secure",
        "Description[pt_BR]": "Compatível com a VPN da Pulse Connect Secure por SSL",
        "Description[ru]": "Совместимая с Pulse Connect Secure VPN с SSL",
        "Description[sk]": "Kompatibilné s Pulse Connect Secure SSL VPN",
        "Description[sl]": "Združljivo s Pulse Connect Secure SSL VPN",
        "Description[sv]": "Kompatibel med Pulse Connect Secure SSL VPN",
        "Description[tr]": "Pulse Connect Secure SSL VPN ile uyumlu",
        "Description[uk]": "Сумісний із VPN SSL Pulse Connect Secure",
        "Description[x-test]": "xxCompatible with Pulse Connect Secure SSL VPNxx",
        "Description[zh_CN]": "兼容 Pulse Connect Secure SSL VPN",
        "Description[zh_TW]": "與 Pulse Connect Secure SSL VPN 相容",
        "EnabledByDefault": false,
        "Icon": "",
        "Id": "plasmanetworkmanagement_openconnect_pulseui",
        "License": "GPL",
        "Name": "Pulse Connect Secure (openconnect)",
        "Name[ar]": "خادم Pulse Connect Secure بواسطة (openconnect)",
        "Name[az]": "Pulse Connect Secure (openconnect)",
        "Name[bg]": "Pulse Connect Secure (openconnect)",
        "Name[ca@valencia]": "Pulse Connect Secure (openconnect)",
        "Name[ca]": "Pulse Connect Secure (openconnect)",
        "Name[cs]": "Pulse Connect Secure (openconnect)",
        "Name[de]": "Pulse Connect Secure (openconnect)",
        "Name[en_GB]": "Pulse Connect Secure (openconnect)",
        "Name[es]": "Pulse Connect Secure (openconnect)",
        "Name[eu]": "Pulse Connect Secure (openconnect)",
        "Name[fi]": "Pulse Connect Secure (openconnect)",
        "Name[fr]": "Pulse Connect Secure (openconnect)",
        "Name[gl]": "Pulse Connect Secure (openconnect)",
        "Name[hu]": "Pulse Connect Secure (openconnect)",
        "Name[ia]": "Pulse Connect Secure (openconnect)",
        "Name[is]": "Pulse Connect Secure (openconnect)",
        "Name[it]": "Pulse Connect Secure (openconnect)",
        "Name[ka]": "Pulse Connect Secure (openconnect)",
        "Name[ko]": "Pulse Connect Secure(openconnect)",
        "Name[lt]": "Pulse Connect Secure (openconnect)",
        "Name[nl]": "Pulse Connect Secure (openconnect)",
        "Name[nn]": "Pulse Connect Secure (openconnect)",
        "Name[pl]": "Pulse Connect Secure (openconnect)",
        "Name[pt]": "Pulse Connect Secure (openconnect)",
        "Name[pt_BR]": "Pulse Connect Secure (openconnect)",
        "Name[ru]": "Pulse Connect Secure (openconnect)",
        "Name[sk]": "Pulse Connect Secure (openconnect)",
        "Name[sl]": "Pulse Connect Secure (openconnect)",
        "Name[sv]": "Pulse Connect Secure (openconnect)",
        "Name[tr]": "Pulse Connect Secure (openconnect)",
        "Name[uk]": "Pulse Connect Secure (openconnect)",
        "Name[x-test]": "xxPulse Connect Secure (openconnect)xx",
        "Name[zh_CN]": "Pulse Connect Secure (openconnect)",
        "Name[zh_TW]": "Pulse Connect Secure (openconnect)",
        "Version": "0.1",
        "Website": ""
    },
    "X-NetworkManager-Services": "org.freedesktop.NetworkManager.openconnect",
    "X-NetworkManager-Services-Subtype": "pulse"
}
